bundle_id,app_id,partner_id,imp_is_instl,imp_type,imp_height,imp_width,device_type,app_type,tagid,cost,bids,shows,clicks,actions,uu,rt_uu,rt_ratio,ctr,score
382617920,382617920,gadex_hk,0,1,250,300,4,1,,4139501,1819,185,1,0,1091,26,0.02383134739,0.005405405405,0.000128818094
488575683,130739541,smaato_sg,0,1,250,300,4,1,130739541,3250225,933,146,1,0,503,6,0.01192842942,0.006849315068,0.00008170157139
302324249,130538804,smaato_sg,0,1,50,320,4,1,130538804,23108354,7673,2764,29,0,1343,6,0.004467609829,0.01049204052,0.00004687434336
302324249,30883d1fcf5e44f1b717f97d2e02250f,mopub,0,1,250,300,4,1,16872d5e801a4d7ea8774799c376497e,136864400,30954,9388,52,0,1204,9,0.007475083056,0.005538985939,0.00004140437995
302324249,30883d1fcf5e44f1b717f97d2e02250f,mopub,0,1,50,320,4,1,e3938c6090174393bc72629b845c389f,8613700,10368,4041,26,0,2728,8,0.00293255132,0.006434050977,0.00001886818468
336693856,130541449,smaato_sg,0,1,250,300,4,1,130541449,45953418,24977,3020,3,0,7481,127,0.01697634006,0.0009933774834,0.00001686391397
1212951043,1212951043,gadex_hk,1,1,480,320,4,1,,32536649,64018,643,14,0,13248,10,0.0007548309179,0.02177293935,0.00001643488779
341232718,4b7abd0c8455421ab3dbee36d07ce7f6,mopub,0,1,50,320,4,1,5200209e4a354bd5a135c82f101977e6,13422600,4098,1151,1,0,1821,22,0.01208127403,0.0008688097307,0.00001049632843
893677096,893677096,gadex_hk,1,1,320,480,4,1,,9860747,5745,372,1,0,1803,6,0.003327787022,0.002688172043,0.000008945664037
302324249,130538805,smaato_sg,0,1,250,300,4,1,130538805,94682990,54081,16683,71,0,4121,7,0.001698616841,0.004255829287,0.000007229023298
1452227871,1cefda88dec64f74ae27926d0bfb1f87,mopub,0,1,50,320,4,1,b9d81ac528bc4199b9b7a12f1fcc72c4,36651600,12658,5686,11,0,2911,10,0.00343524562,0.001934576152,0.000006645744253
336693856,336693856,gadex_hk,0,1,250,300,4,1,2908993577,34650519,27886,2779,1,0,8428,125,0.014831514,0.0003598416697,0.000005336996762
1407852246,f8df129c57d243efa3bc5c423fe7f769,mopub,0,1,50,320,4,1,7814623cb60f4f92b04a36a1a7f0b7a3,41041400,14505,9279,38,0,4646,6,0.001291433491,0.004095268887,0.000005288767396
585270521,585270521,gadex_hk,1,1,480,320,4,1,,48142982,45425,2268,24,0,20018,9,0.0004495953642,0.01058201058,0.000004757622901
384101264,384101264,gadex_hk,1,1,480,320,4,1,,98933938,31761,2897,23,0,12762,6,0.0004701457452,0.007939247497,0.000003732603431
389638243,389638243,gadex_hk,1,1,480,320,4,1,,7556813,29470,172,1,0,12791,8,0.0006254397623,0.005813953488,0.000003636277688
625607532,625607532,gadex_hk,0,1,250,300,4,1,1747805517,5129102,28589,333,2,0,16443,8,0.0004865292222,0.006006006006,0.00000292209743
927842460,927842460,gadex_hk,0,1,250,300,4,1,,2983814,219693,510,2,0,11058,7,0.0006330258636,0.003921568627,0.000002482454367
409060691,409060691,gadex_hk,0,1,250,300,4,1,223388366,15063345,870626,1323,2,0,293609,108,0.0003678361358,0.001511715797,0.0000005560636974
384101264,384101264,gadex_hk,0,1,250,300,4,1,772390252,49642593,262777,9082,7,0,24572,15,0.0006104509197,0.0007707553402,0.0000004705083063
336693856,336693856,gadex_hk,0,1,250,300,4,1,2815643602,3239942,12958,149,0,0,5448,167,0.03065345081,0,0
592978502,592978502,gadex_hk,0,1,250,300,4,1,2815643602,8303935,5907,373,0,0,4253,37,0.008699741359,0,0
336693856,336693856,gadex_hk,0,1,50,320,4,1,2908993577,2943516,9986,425,0,0,5623,31,0.005513071314,0,0
306930083,306930083,gadex_hk,0,1,250,300,4,1,,3670543,273597,413,0,0,37105,20,0.000539010915,0,0
341232718,4b7abd0c8455421ab3dbee36d07ce7f6,mopub,0,1,50,320,4,1,35983288f73941a9b33f2abe9739c5bc,8260200,4589,515,0,0,2657,19,0.007150922093,0,0
341232718,4b7abd0c8455421ab3dbee36d07ce7f6,mopub,0,1,50,320,4,1,634d87a27e364dce88b8c1680e9345fa,13721700,3992,595,0,0,2050,15,0.007317073171,0,0
1481293953,1481293953,gadex_hk,0,1,50,320,4,1,2046311979,10940896,644,417,0,0,134,14,0.1044776119,0,0
546237412,546237412,gadex_hk,0,1,250,300,4,1,,1380211,208012,159,0,0,30666,13,0.0004239222592,0,0
416968944,416968944,gadex_hk,0,1,250,300,4,1,,1340961,97594,181,0,0,17508,11,0.0006282842129,0,0
341232718,341232718,gadex_hk,0,1,50,320,4,1,2607434729,89471,1993,55,0,0,1584,9,0.005681818182,0,0
341232718,341232718,gadex_hk,0,1,50,320,4,1,2046311979,1859371,1143,189,0,0,699,8,0.01144492132,0,0
384101264,130524687,smaato_sg,0,1,250,300,4,1,130524687,5785014,5265,280,0,0,1853,8,0.00431732326,0,0
1481293953,130806783,smaato_sg,0,1,50,320,4,1,130806783,6555524,230,223,0,0,43,7,0.1627906977,0,0
329218549,329218549,gadex_hk,0,1,250,300,4,1,2815643602,636904,19815,108,0,0,4023,7,0.001739995029,0,0
341232718,341232718,gadex_hk,0,1,50,320,4,1,565663191,1543521,851,130,0,0,315,6,0.01904761905,0,0
295646461,295646461,gadex_hk,0,1,50,320,4,1,2607434729,1003896,408,119,0,0,174,6,0.03448275862,0,0
1265133033,e95d9196881844f88d64cae9ab469cf3,mopub,0,1,250,300,4,1,8fdff831b8074613bff06c2672436b18,2065300,846,238,0,0,49,6,0.1224489796,0,0
355554941,355554941,gadex_hk,0,1,250,300,4,1,2815643602,1316702,5837,279,0,0,3495,6,0.001716738197,0,0
341232718,341232718,gadex_hk,0,1,50,320,4,1,548786043,1335908,201,68,0,0,109,6,0.05504587156,0,0
415427158,415427158,gadex_hk,0,1,50,320,4,1,2623603781,1980845,184,69,0,0,38,6,0.1578947368,0,0
312389512,312389512,gadex_hk,0,1,50,320,4,1,3013443955,3229759,245,58,0,0,153,6,0.03921568627,0,0
341232718,341232718,gadex_hk,0,1,50,320,4,1,242417253,972997,1801,120,0,0,1196,6,0.005016722408,0,0