bundle_id,app_id,partner_id,imp_is_instl,imp_type,imp_height,imp_width,device_type,app_type,tagid,cost,bids,shows,clicks,actions,uu,rt_uu,rt_ratio,ctr,score
lighthouse.ledflashlight.appessentials.torch.stroboscope,bd803ae10394476b89fdc70ffe843d34,mopub,1,1,480,320,4,1,a5714203936446e39a1e909499f6d355,170455400,18889,1775,285,6,1018,89,0.08742632613,0.1605633803,0.01403746645
com.sapphireluxury.solitaire,a96080441aad421c882d44825ac598c9,mopub,1,1,480,320,4,1,c6fd99b5a4164871b37149ed764d9e94,609799700,27314,2681,365,42,958,91,0.09498956159,0.1361432301,0.01293218574
com.ivalex.bricksbreaker,ef61e982ffcd4dc5ab0ec3380b009045,mopub,1,1,480,320,4,1,f07aa7706d7247aeac28b15b205878a3,534053200,29515,2973,387,48,980,82,0.08367346939,0.1301715439,0.01089190469
com.warship.battle,b80fb0f8566c431eafe7521a9967c223,mopub,1,1,480,320,4,1,01548aead1bd4837b999455a0bca55ee,435151700,26564,2685,339,40,976,82,0.08401639344,0.1262569832,0.01060765638
com.hairstyle.best2017,2ef98aeaebcc486bbe4ffa784fcc8df1,mopub,1,1,480,320,4,1,64b26f4240ac4a0cb68ab524740f2b0b,57498300,13124,860,122,2,957,62,0.06478578892,0.1418604651,0.00919054215
com.presento.goalormiss,e25a0e85bbd54815b254858de23d51df,mopub,1,1,320,480,4,1,076bedb21afe46889485f65db905c0cb,533602800,28480,3457,389,52,978,73,0.07464212679,0.112525311,0.008399128528
com.redtech.pandajump,fb4c3ce14867477399dc4855d74e8922,mopub,1,1,480,320,4,1,79e60472207348dda0e295706f6f084e,88010500,29718,3090,467,3,977,53,0.05424769703,0.1511326861,0.008198600166
com.memory.genius,c21cec7fce0343639dc15bf062bd0ccd,mopub,1,1,480,320,4,1,1e63ce5595be4be7ae68780e99e6610a,323377300,17016,2443,393,45,947,45,0.04751847941,0.1608677855,0.007644192553
com.magic.cat.bubble.shoot.free,26fd355b73154dde8665a7ce571d8d9c,mopub,1,1,480,320,4,1,5783a0a42bc8402d9e9aec33f4b68dca,229036700,20330,2097,340,43,975,45,0.04615384615,0.1621363853,0.007483217784
com.lotteworld.android.lottemagicpass,a5dfd37d35014970b5aec5e97771eb7d,mopub,1,1,480,320,4,1,28f377d275cc4cd7af22f90390c05f62,321640000,16312,2484,389,43,998,45,0.04509018036,0.1566022544,0.007061223897
com.hairstyle.newfashion,38752d109c8c474da0191df64cd7cc67,mopub,1,1,480,320,4,1,9d8ad9f9390644ebb32b7fd34181962e,14070800,6324,347,42,0,555,31,0.05585585586,0.121037464,0.006760651141
com.fishdefense.kashtan,069052b4825a4fadb6bb7c6e720c5223,mopub,1,1,320,480,4,1,87965be704fe4386805b5f58f6a09b38,169623600,2545,1837,208,28,456,27,0.05921052632,0.1132280893,0.00670429476
com.poker.wsop,39b86c4c2d034857a0bd4565939683e6,mopub,1,1,480,320,4,1,06fe72f15e68468caea1a869bcace211,259437900,17534,2447,395,38,1037,41,0.03953712633,0.1614221496,0.006382167919
word.finder.search.expert,d6bf0baa524f43dd927f000c3673f90f,mopub,1,1,480,320,4,1,bbcce01114a84107bbaf2d57fc5bb111,298075600,20594,2662,406,40,1039,43,0.04138594803,0.1525169046,0.006312056686
com.drift.retroracing,7d48c787c2104358904c22c002353a5e,mopub,1,1,480,320,4,1,a2fba91f45df4d9b869de207c0e6525d,107269400,27418,3997,527,4,985,45,0.04568527919,0.1318488867,0.006023553198
com.mahjong.boardgamesfree,611aceff140f4d85a8a25b8476b76f50,mopub,1,1,480,320,4,1,09853a0861a7449d997a2d3a1e34a79f,369539400,29484,2982,319,41,986,48,0.04868154158,0.1069751844,0.00520771689
com.cuisine.gourmet,b7c1d1bf3134452aa3c519f3ad9f112a,mopub,1,1,320,480,4,1,e370fdb60ac24cdaa136eba6cbbdd104,197681000,23896,2619,418,25,1044,33,0.0316091954,0.1596029019,0.005044919312
com.eyesmakeup.best2017,234cbe32e4f541339a48b6a42ba8475f,mopub,1,1,480,320,4,1,cae11f4180024bc4877817511c55ac2a,63195500,5548,589,63,3,500,23,0.046,0.1069609508,0.004920203735
com.shevchlabs.dragon,070caf8dc39b4fa59f7f6440b1f13fa4,mopub,1,1,320,480,4,1,948463378af3415d8b94a1ccc2a2537d,227868500,27278,7604,1044,45,987,35,0.03546099291,0.1372961599,0.004868658153
com.iphonease.ledflashlight.button,c23f94e1595d43bf8f0740d5dedf114e,mopub,1,1,480,320,4,1,8eb5185ae793466d849739ba3caf7bfe,338575200,22057,15501,2365,54,1005,32,0.03184079602,0.1525708019,0.004857975781
com.tictactoe.galaxy,0c420f36495c40398f597d4c05ee26e2,mopub,1,1,480,320,4,1,f35c4462ff8747a19629efd77fedd4ff,342722700,17167,2803,369,37,1006,36,0.03578528827,0.1316446664,0.004710942337
com.tetranoidtetrises.oldschoolgameplay,2c1d8e9e6451442b9313735c6bbc07e6,mopub,1,1,480,320,4,1,41bd7bdebf314ca7a38d0eef47a0313a,164869900,14778,1819,283,21,995,30,0.03015075377,0.155579989,0.00469085394
com.blackjack.domsa,4cf197f09d134e46b9b6ad8702ee3fee,mopub,1,1,480,320,4,1,d8021a69ff3f4de99e7643e4b5682bc2,82924200,32202,3704,477,1,1021,36,0.03525954946,0.1287796976,0.004540714118
com.pokerept.holdemomaha.nlpro,99ee04fc59284dc6a2972a04004455eb,mopub,1,1,320,480,4,1,78530ded868443b2956fa72bd53b4757,74586800,20999,1985,264,1,1001,30,0.02997002997,0.1329974811,0.003985938495
me.chatie,me.chatie,gadex_hk,1,2,480,320,4,1,,3677295,82635,89,20,0,14044,220,0.01566505269,0.2247191011,0.00352023656
com.best.bingo,4ab319d2ea83408d850c89d4052b22c0,mopub,1,1,320,480,4,1,4d93459ee79242e6a0f1a5c490632aca,213359800,17604,6954,837,28,942,27,0.02866242038,0.1203623814,0.003449877173
com.blackjack21.euphoria,c18aeaf60f154d22b48fd9961c3ba5dc,mopub,1,1,480,320,4,1,8699123c003a48c98cdfa9bd862076b5,262059500,22282,2855,425,19,971,22,0.02265705458,0.1488616462,0.003372766444
com.words.completer,723aa4f9347e4ae7b5a11e9297f109b1,mopub,1,1,480,320,4,1,1f449fa0fb9f4c3a8908e63126eef956,123776800,13624,1355,185,12,644,13,0.0201863354,0.1365313653,0.002756067933
com.cryptomanjong.ripple,63203100c41247759861420f20af273d,mopub,1,1,480,320,4,1,88084d7e6ae144b48067dc8946c4e7e4,239457800,17867,2390,337,13,936,14,0.01495726496,0.1410041841,0.002109036942
com.funple.app.zzal.reward,1529774,pubnative_sg,0,4,-1,-1,4,1,s67z2x2afoq3ovd,40209218,37461,2205,572,1,8680,38,0.004377880184,0.2594104308,0.001135667785
com.nflystudio.InfiniteStaircase,com.nflystudio.InfiniteStaircase,gadex_hk,1,2,480,320,4,1,,778707,91668,97,22,0,39866,181,0.004540209703,0.2268041237,0.001029738283
com.freevpnintouch,com.freevpnintouch,gadex_hk,1,2,480,320,4,1,,177076,205270,141,44,0,9271,30,0.003235896883,0.3120567376,0.001009783424
com.mobions.asked,com.mobions.asked,gadex_hk,1,2,200,200,4,1,,1502116,4323,54,4,0,1065,12,0.01126760563,0.07407407407,0.0008346374544
emotion.onekm,1495827,pubnative_sg,0,4,-1,-1,4,1,82f0b2fb74d61605bf1a56e6438df63b1aa93fc9,24746561,67215,1107,169,1,3122,16,0.005124919923,0.15266486,0.0007823951825
com.fusionmedia.investing,130761657,smaato_sg,0,1,100,320,4,1,130761657,29487,45630,65,26,0,12778,23,0.001799968696,0.4,0.0007199874785
com.freevpnintouch,com.freevpnintouch,gadex_usw,1,2,480,320,4,1,,2677942,107006,147,32,0,8466,28,0.003307347035,0.2176870748,0.0007199667015
emotion.onekm,24cbb00d,tpmn_kr,0,4,-1,-1,4,1,82f0b2fb74d61605bf1a56e6438df63b1aa93fc9,17428453,51964,730,106,0,3242,16,0.00493522517,0.1452054795,0.000716621737
com.cloudmosa.puffinFree,com.cloudmosa.puffinFree,gadex_hk,1,2,480,320,4,1,,1419115,52316,74,15,0,42305,148,0.003498404444,0.2027027027,0.0007091360359
com.funple.app.zzal.reward,1529774,pubnative_sg,0,1,250,300,4,1,s67z2x2afoq3ovd,6878549,25405,822,115,0,7202,34,0.004720910858,0.1399026764,0.0006604680641
emotion.onekm,5d564ff98aec4909818b6fc4:emotion.onekm_5c2046118aec4947b7dd2567,adx_kr,0,4,-1,-1,4,1,5d564ff98aec4909818b6fc4:emotion.onekm_5c2046118aec4947b7dd2567,24566339,67430,1488,219,0,8503,38,0.004469010937,0.1471774194,0.0006577374968
emotion.onekm,1495827,tpmn_kr,0,4,-1,-1,4,1,82f0b2fb74d61605bf1a56e6438df63b1aa93fc9,15915478,26013,386,55,1,2640,12,0.004545454545,0.1424870466,0.0006476683938
com.funple.app.zzal.reward,s67z2x2afoq3ovd,adpopcorn_kr,0,1,250,300,4,1,s67z2x2afoq3ovd,40341710,134716,9060,1102,0,9627,44,0.004570478862,0.1216335541,0.0005559235878
com.funple.app.zzal.reward,1529774,pubnative_sg,0,4,-1,-1,4,1,8kz0uvqxwtm4t2x,454305429,345721,13806,2584,5,39959,105,0.002627693386,0.1871650007,0.0004918122344
com.persimmontree.cs,1560952,tpmn_kr,1,1,480,320,4,1,yo0zjwpj4xlha7n,465753,8297,136,4,0,1641,27,0.01645338208,0.02941176471,0.0004839230025
com.yourtube.cash,1529970,pubnative_sg,1,4,-1,-1,4,1,auu4zl2wn5srss1,7685848,99277,898,104,0,28417,104,0.003659781117,0.1158129176,0.0004238499289
com.edjing.edjingdjturntable,79062becb2894cabafb7af99c06b0004,mopub,1,1,320,480,4,1,543d50f194f64b57a127277add60ba91,1390900,5275,88,3,0,1191,14,0.01175482788,0.03409090909,0.0004007327685
com.xmobile.wowradio,com.xmobile.wowradio,gadex_hk,1,1,480,320,4,1,,25828616,404669,447,13,0,82072,1039,0.01265961595,0.02908277405,0.0003681767501
com.rsupport.mobizen.lg,88d066fb16604b77b31eeb3bd30c98c2,mopub,0,4,-1,-1,4,1,ac65ae8d5e044111a0783f186e5cd39b,779900,25989,86,5,0,8545,52,0.006085430076,0.05813953488,0.0003538040742
emotion.onekm,1608345,tpmn_kr,0,4,-1,-1,4,1,168047,2934971,2143,434,9,0,648,11,0.01697530864,0.02073732719,0.0003520225294
com.funple.app.zzal.reward,8kz0uvqxwtm4t2x,adpopcorn_kr,0,1,250,300,4,1,8kz0uvqxwtm4t2x,709604308,582047,21195,3005,10,41951,104,0.002479082739,0.1417787214,0.000351481181
com.avatye.aos.haru,z89pkxk4o64o5rn,adpopcorn_kr,0,1,250,300,4,1,z89pkxk4o64o5rn,40493661,67844,2408,204,1,5173,21,0.004059539919,0.08471760797,0.0003439145114
com.funple.app.zzal.reward,1529774,pubnative_sg,0,1,250,300,4,1,8kz0uvqxwtm4t2x,196883746,223316,5777,760,4,33414,85,0.002543843898,0.131556171,0.0003346583629
com.estmob.android.sendanywhere,bd7f61fcc92349799929d673269e7533,mopub,0,4,-1,-1,4,1,e30faf7974f245e9a4ed5f4587251889,77515800,57480,1239,167,2,24984,61,0.0024415626,0.1347861178,0.0003290887443
com.link.messages.sms,88df48d6b16c43099114194bcacd665c,mopub,0,4,-1,-1,4,1,65145a7c2a4b4537bb71ce0b4c6eb6f0,17969400,20502,458,34,3,2934,13,0.004430811179,0.07423580786,0.0003289248474
com.appmind.radios.kr,com.appmind.radios.kr,gadex_hk,0,4,-1,-1,4,1,,5924854,12723,108,1,0,1381,49,0.03548153512,0.009259259259,0.0003285327326
com.andromedagames.billiardsgod,0c181a8cf4174e3cbdb9d847bfc486d9,mopub,1,1,320,480,4,1,f548bf6469e34dc1a0de82d8aa5ebaa4,16848900,507911,218,23,0,41449,127,0.003064006369,0.1055045872,0.000323266727
com.funple.app.zzal.reward,1529774,tpmn_kr,0,4,-1,-1,4,1,8kz0uvqxwtm4t2x,80144063,35720,2045,392,2,9852,16,0.001624035729,0.1916870416,0.0003113066042
fast.phone.clean,d01df44da9194669b1c996c2e88b733d,mopub,0,4,-1,-1,4,1,c76449bd53a34c6f9fcd4cf0bbc6e749,24013600,9051,893,55,0,4119,19,0.00461277009,0.06159014558,0.0002841011813
com.cocoradio.country.kr,com.cocoradio.country.kr,gadex_hk,0,4,-1,-1,4,1,,2298382,15765,89,2,0,3676,46,0.01251360174,0.02247191011,0.0002812045335
com.funple.app.zzal.reward,1529774,pubnative_sg,1,4,-1,-1,4,1,ggser1788ama0s5,9617485,17657,2796,168,0,8794,38,0.004321128042,0.06008583691,0.0002596385948
com.godsimtalk.app,b23deae918144f5d907fd43250837e08,mopub,1,1,480,320,4,1,88af86bb9dab4700a974151bda869a62,44413000,35442,1054,113,0,16526,40,0.002420428416,0.1072106262,0.0002594956461
com.rsupport.mvagent,d0d53d4d6a334c89a1215534bc57a6e0,mopub,0,4,-1,-1,4,1,fdc6d4f375cb40ec9970313fc7a61907,42946100,192849,1046,60,0,74418,330,0.00443441103,0.05736137667,0.0002543639214
com.funple.app.zzal.reward,1529774,pubnative_sg,0,4,-1,-1,4,1,vxfnwq8t9so3sdc,437992327,434475,31255,3146,7,25350,63,0.002485207101,0.1006558951,0.0002501507451
com.pump.noraebang,com.pump.noraebang,gadex_hk,1,1,480,320,4,1,,3575870,119560,91,1,0,18394,381,0.02071327607,0.01098901099,0.0002276184183
com.persimmontree.cs,1560952,pubnative_sg,1,1,480,320,4,1,yo0zjwpj4xlha7n,593074,49677,229,3,0,2799,48,0.01714898178,0.01310043668,0.0002246591499
droom.sleepIfUCan,9147ad6fdd7f4c41a6b6d0f8b14f5a88,mopub,0,4,-1,-1,4,1,0a0a0600bab949f29b0a9262ef8c401b,1435574900,502227,57045,4631,8,50739,138,0.002719801336,0.08118152336,0.0002207976157
com.fusionmedia.investing,130618465,smaato_sg,0,1,250,300,4,1,130618465,1917655,531109,467,65,0,38121,60,0.001573935626,0.1391862955,0.0002190702691
com.link.messages.sms,88df48d6b16c43099114194bcacd665c,mopub,0,4,-1,-1,4,1,99ebba81071c4a67885c39ca76c9eb3b,9644100,49594,457,36,0,4677,13,0.002779559547,0.07877461707,0.0002189587389
com.timespread.Timetable2,9a636057,exelbid_kr,0,4,-1,-1,4,1,529e23821f371d955fb9f56b06ce9de33631950a,5575528215,1331910,280877,27156,32,39724,88,0.00221528547,0.09668288966,0.0002141802006
com.cashwalk.cashwalk,51fff7bd,tpmn_kr,0,4,-1,-1,4,1,a29707e73c766236116feef5912498913b3c5c5f,705013815,66353,31119,3809,2,48083,84,0.001746979182,0.1224011054,0.000213832183
com.ivuu,d12634a25683466f920b44c5bfd01fdb,mopub,0,4,-1,-1,4,1,97e4a7dcae604ac8a654cef6bca9132c,801353300,155775,11814,2279,9,13097,14,0.001068947087,0.1929067208,0.0002062070773
com.cashwalk.cashwalk,51fff7bd,tpmn_kr,0,4,-1,-1,4,1,41f0a30aead93ad6c0bc6d47fed483bd5ebfc75e,697964480,65213,32163,3738,4,45690,81,0.001772816809,0.1162205018,0.0002060376592
com.persimmontree.cs,yo0zjwpj4xlha7n,adpopcorn_kr,0,1,480,320,4,1,yo0zjwpj4xlha7n,3493692,313049,575,8,0,6959,98,0.01408248312,0.01391304348,0.0001959301999
devian.tubemate.v3,120003854,admixer_kr,1,1,480,320,4,1,22602328,2606899,24176,242,29,0,16571,27,0.001629352483,0.1198347107,0.0001952529835
com.timespread.Timetable2,9a636057,tpmn_kr,0,4,-1,-1,4,1,529e23821f371d955fb9f56b06ce9de33631950a,1619651547,740402,110314,10369,3,34226,71,0.002074446327,0.09399532244,0.0001949882514
com.funple.app.zzal.reward,8kz0uvqxwtm4t2x,tpmn_kr,0,1,250,300,4,1,8kz0uvqxwtm4t2x,438999997,62498,10928,1543,7,10180,14,0.00137524558,0.1411969253,0.0001941804474
com.fusionmedia.investing,130618465,smaato,0,1,250,300,4,1,130618465,661162,189071,132,14,0,33242,60,0.001804945551,0.1060606061,0.000191433619
com.funple.app.zzal.reward,1529774,pubnative_sg,1,4,-1,-1,4,1,j4oyhlgywng3j2u,15411304,28109,4500,163,0,8909,47,0.005275564036,0.03622222222,0.0001910926529
com.estsoft.alsong,1529944,pubnative_sg,1,4,-1,-1,4,1,y21te47p7ttxr8e,545550000,36239,18151,789,0,14010,61,0.004354032834,0.04346867941,0.0001892640574
com.goodoc.community,fb72205874cc47a69e76ded32f74d3b9,mopub,0,4,-1,-1,4,1,0f997fbc62f94707829c3f883bafaada,33618000,64962,2037,83,0,6233,28,0.004492218835,0.04074619539,0.0001830408264
com.bu.man,6dbcb7ec621641e28a9274c28770955f,mopub,0,4,-1,-1,4,1,5895601b8ce6435084653bfafc5dc4da,1706000,22478,72,4,0,4004,13,0.003246753247,0.05555555556,0.0001803751804
com.norebada.norebada,com.norebada.norebada,gadex_hk,1,1,480,320,4,1,,1136565,22282,57,1,0,3327,34,0.01021941689,0.01754385965,0.0001792880157
kr.fourwheels.myduty,5990f32ab03f4db79dd9d953e3bf7a63,mopub,0,1,250,300,4,1,088419676f7f4af3b980e152779e8aa8,32682600,34637,631,59,0,14738,28,0.001899850726,0.09350237718,0.0001776405592
com.noyesrun.meeff.kr,1630026,tpmn_kr,0,4,-1,-1,4,1,5d564ff98aec4909818b6fc4:com.noyesrun.meeff.kr_5c29bc458aec492295bce296,26304004,28270,2247,124,0,4352,14,0.003216911765,0.0551846907,0.0001775242807
com.photocard.allstar,com.photocard.allstar,gadex_hk,1,2,480,320,4,1,,689378,19347,281,6,0,1564,13,0.00831202046,0.02135231317,0.0001774808639
com.mxtech.videoplayer.ad,130525568,smaato_sg,1,1,480,320,4,1,130525568,13170972,180125,290,35,0,105125,154,0.001464922711,0.1206896552,0.0001768010169
com.funple.app.zzal.reward,1529774,pubnative_sg,0,1,250,300,4,1,vxfnwq8t9so3sdc,199945670,296177,10985,793,2,22286,54,0.002423045858,0.07218934911,0.0001749181034
com.funple.app.zzal.reward,vxfnwq8t9so3sdc,adpopcorn_kr,0,1,250,300,4,1,vxfnwq8t9so3sdc,646536982,1221046,36283,2341,10,27791,72,0.002590766795,0.06452057437,0.0001671577617
com.cashwalk.cashwalk,51fff7bd,exelbid_kr,0,4,-1,-1,4,1,a29707e73c766236116feef5912498913b3c5c5f,7036254302,384840,286988,36171,17,191064,252,0.001318929783,0.1260366287,0.0001662334633
com.sgy.chat,1529947,pubnative_sg,1,4,-1,-1,4,1,4ioqtjih9u4s2dw,13367952,60054,4332,177,0,8872,36,0.004057709648,0.04085872576,0.0001657928457
com.funple.app.zzal.reward,1529774,pubnative_sg,0,4,-1,-1,4,1,hy1u4qtjb5ttx56,870950172,683108,58605,3404,3,46632,133,0.002852118717,0.05808378125,0.0001656618396
com.timespread.Timetable2,1565661,tpmn_kr,0,4,-1,-1,4,1,529e23821f371d955fb9f56b06ce9de33631950a,129997807,285694,5353,502,1,28643,50,0.001745627204,0.09377918924,0.0001637035039
com.cashwalk.cashwalk,51fff7bd,exelbid_kr,0,4,-1,-1,4,1,aa4159c1af0aee9f41501c6da1ed5c69d563a46c,36986642389,2234475,2078956,311057,90,391024,427,0.001092004583,0.1496217332,0.0001633876184
com.cashwalk.cashwalk,51fff7bd,tpmn_kr,0,4,-1,-1,4,1,aa4159c1af0aee9f41501c6da1ed5c69d563a46c,1292108207,269695,66547,10184,18,119324,127,0.001064329054,0.1530346973,0.0001628792745
com.estmob.android.sendanywhere,bd7f61fcc92349799929d673269e7533,mopub,0,4,-1,-1,4,1,cbe3d194f95e42c8ba9f376df350e556,4665400,19835,90,6,0,9234,22,0.002382499459,0.06666666667,0.0001588332972
kr.co.smavis.st,1530031,pubnative_sg,1,4,-1,-1,4,1,o24sizqkvuw94cd,167448172,197966,13881,568,2,76807,298,0.003879854701,0.04091924213,0.0001587607139
com.noyesrun.meeff.kr,5d564ff98aec4909818b6fc4:com.noyesrun.meeff.kr_5c29bc458aec492295bce296,adx_kr,0,4,-1,-1,4,1,5d564ff98aec4909818b6fc4:com.noyesrun.meeff.kr_5c29bc458aec492295bce296,182523420,235584,35149,2101,1,26033,69,0.00265048208,0.05977410453,0.0001584301929
com.noyesrun.meeff.kr,1495800,tpmn_kr,0,4,-1,-1,4,1,c5d40ddfcac99992439b2d8b2159ce24f397e626,129190015,67769,6236,352,0,7499,21,0.002800373383,0.05644644003,0.0001580711082
com.cashwalk.cashwalk,51fff7bd,exelbid_kr,0,4,-1,-1,4,1,41f0a30aead93ad6c0bc6d47fed483bd5ebfc75e,6361188882,360400,275446,33505,8,173084,223,0.001288391764,0.1216390872,0.000156718798
com.freevpnintouch,com.freevpnintouch,gadex_usw,1,1,480,320,4,1,,4658894,56783,126,4,0,4813,23,0.004778724288,0.03174603175,0.000151705533
com.noyesrun.meeff.kr,1630026,pubnative_sg,0,4,-1,-1,4,1,5d564ff98aec4909818b6fc4:com.noyesrun.meeff.kr_5c29bc458aec492295bce296,94910579,94227,9151,527,1,12954,34,0.002624671916,0.0575893345,0.0001511531089
com.appgate.gorealra,com.appgate.gorealra,gadex_hk,0,1,50,320,4,1,3670171922,1115575,4606,183,2,0,2028,28,0.01380670611,0.01092896175,0.000150892963
emotion.onekm,baidu_73352d6acea02f2efcd5c4a2d57f4849,bidswitch_jp,0,4,-1,-1,4,1,baidu_168047,7478740,3355,717,7,0,842,13,0.01543942993,0.009762900976,0.0001507336255
com.pience.wifi,3cow97ict4l616n,adpopcorn_kr,0,1,250,300,4,1,3cow97ict4l616n,150009976,378462,21494,955,0,35051,116,0.003309463353,0.044431004,0.0001470427795
com.hiddencash.legend,cfaf52d,tpmn_kr,0,4,-1,-1,4,1,cedb4718f365ca9d76c8d8a5ea4b717a3999ce32,581228488,190131,63237,1963,0,4909,23,0.004685271949,0.03104195329,0.000145439993
devian.tubemate.v3,130020084,smaato_sg,1,1,480,320,4,1,130020084,5865280,10699,220,14,0,8068,18,0.002231036192,0.06363636364,0.0001419750304
kr.co.quicket,vn8n2kks9201kcn,tpmn_kr,1,1,480,320,4,1,vn8n2kks9201kcn,3824849,39489,112,4,0,12977,51,0.003930030053,0.03571428571,0.0001403582162
com.noyesrun.meeff.kr,c457b0a6,tpmn_kr,0,4,-1,-1,4,1,c5d40ddfcac99992439b2d8b2159ce24f397e626,230865785,133947,14089,805,0,11439,28,0.002447766413,0.05713677337,0.0001398574748
com.yourtube.cash,1529970,pubnative_sg,0,4,-1,-1,4,1,n4p7p2d3nrlmket,25968794,57955,9146,321,0,21164,84,0.003969003969,0.0350973103,0.0001393013639
com.gamzal.play,5oaccblytjkqg04,tpmn_kr,0,1,250,300,4,1,5oaccblytjkqg04,35396405,19505,5613,251,0,8701,27,0.003103091599,0.04471761981,0.0001387628703
com.jkchat.votok,21278,cauly_kr,0,1,50,320,4,1,1,18313826,7669,5510,40,0,1099,21,0.01910828025,0.007259528131,0.000138717098
com.noyesrun.meeff.kr,18429,tpmn_kr,0,4,-1,-1,4,1,18429,33597730,12838,1926,134,0,6039,12,0.001987083954,0.06957424714,0.0001382498701
com.cassette.aquapark,a05f4c62506c410a8e633d327c22f83f,mopub,1,1,480,320,4,1,aecbbab9b8ff43bc8cd808e160224ef7,17207500,856766,365,24,0,47593,100,0.002101149329,0.06575342466,0.0001381577641
com.mxtech.videoplayer.ad,130525568,smaato,1,1,480,320,4,1,130525568,2742552,56568,58,5,0,43191,69,0.001597555046,0.08620689655,0.0001377202626
com.funple.app.zzal.reward,1529774,tpmn_kr,0,4,-1,-1,4,1,hy1u4qtjb5ttx56,109942693,114425,5059,269,3,12843,33,0.002569493109,0.05317256375,0.0001366265361
com.funple.app.zzal.reward,hy1u4qtjb5ttx56,tpmn_kr,0,1,250,300,4,1,hy1u4qtjb5ttx56,456864924,348623,24540,1225,7,29607,81,0.002735839497,0.04991850041,0.0001365690051
com.noyesrun.meeff.kr,1495800,pubnative_sg,0,4,-1,-1,4,1,c5d40ddfcac99992439b2d8b2159ce24f397e626,406626557,208036,23239,1440,1,18185,40,0.002199615067,0.06196480055,0.0001362987089
com.appgate.gorealra,com.appgate.gorealra,gadex_hk,1,1,480,320,4,1,,65020978,686552,969,24,0,167200,917,0.005484449761,0.02476780186,0.000135837765
com.firsttouchgames.dls7,com.firsttouchgames.dls7,gadex_hk,1,1,320,480,4,1,,881116,49269,59,1,0,4398,35,0.007958162801,0.01694915254,0.0001348841153
devian.tubemate.v3,130190758,smaato,0,1,250,300,4,1,130190758,12956679,6735,2872,139,1,5575,15,0.00269058296,0.04839832869,0.0001302197185
com.estsoft.alsong,1529944,tpmn_kr,0,4,-1,-1,4,1,y21te47p7ttxr8e,26557512,68957,2291,81,0,36849,134,0.003636462319,0.03535573985,0.0001285698157
com.wisetoto,5d31184d8aec491ed6950c09:com.wisetoto_5d2821d18aec49434869aa84,adx_kr,0,1,480,320,4,1,5d31184d8aec491ed6950c09:com.wisetoto_5d2821d18aec49434869aa84,596731761,44381,26223,3097,0,29566,32,0.001082324291,0.1181024292,0.000127825128
com.gamzal.play,5oaccblytjkqg04,adpopcorn_kr,0,1,250,300,4,1,5oaccblytjkqg04,47473609,21619,4493,177,0,8396,27,0.003215817056,0.03939461384,0.0001266858711
com.ismaker.android.simsimi,79dd6a4fd16640a7a792f52cb8466477,mopub,0,4,-1,-1,4,1,881145ddbe704bd6a74e9fe446acc39c,16510900,6548,1594,28,1,2368,17,0.007179054054,0.01756587202,0.0001261063447
com.EOAG.IceOnline,com.EOAG.IceOnline,gadex_hk,1,1,320,480,4,1,,7475095,206657,499,9,1,15869,110,0.006931753734,0.01803607214,0.0001250216104
com.xmobile.wowradio,com.xmobile.wowradio,gadex_hk,0,4,-1,-1,4,1,,30128395,263858,1195,11,0,51007,686,0.01344913443,0.009205020921,0.0001237995638
com.commsource.beautyplus,130678342,smaato_sg,1,1,480,320,4,1,130678342,3556965,14433,72,5,0,9584,17,0.001773789649,0.06944444444,0.0001231798368
com.dev3factory.shinbiApart,com.dev3factory.shinbiApart,gadex_hk,1,2,480,320,4,1,,287627,48596,115,7,0,27352,55,0.002010821878,0.06086956522,0.0001223978534
com.funple.app.zzal.reward,1529774,pubnative_sg,1,4,-1,-1,4,1,vhkwytalmal4u7n,11361950,15022,3095,82,0,4361,20,0.004586104105,0.02649434572,0.0001215058276
jp.ne.ibis.ibispaintx.app,jp.ne.ibis.ibispaintx.app,pubmatic_sg,0,1,50,320,4,1,2619147,1931830,11415,492,15,0,4282,17,0.003970107426,0.03048780488,0.0001210398606
io.voodoo.paper2,e90310149f324c77a24020b5f1c35410,mopub,1,1,480,320,4,1,eb18ffa567d644619faeb177e1e2a249,22920900,582206,304,15,0,46954,114,0.002427908165,0.04934210526,0.0001197981003
com.funple.app.zzal.reward,hy1u4qtjb5ttx56,adpopcorn_kr,0,1,250,300,4,1,hy1u4qtjb5ttx56,695166432,691145,52727,2422,2,45718,119,0.002602913513,0.04593472035,0.0001195641043
com.funple.app.zzal.reward,1529774,pubnative_sg,0,1,250,300,4,1,hy1u4qtjb5ttx56,252614700,460940,18614,776,0,40688,116,0.002850963429,0.04168905125,0.0001188539605
com.hiddencash.legend,1468039,pubnative_sg,0,4,-1,-1,4,1,cedb4718f365ca9d76c8d8a5ea4b717a3999ce32,545413540,300285,86845,2365,0,7859,34,0.004326250159,0.02723242559,0.0001178142855
com.forshared.files,13175cbf1d644939bacf38caf96e4b37,mopub,1,1,480,320,4,1,44c71c1de8634a96a928eae3c7c03b9d,6696700,15400,469,18,0,12152,37,0.003044766294,0.03837953092,0.0001168567021
com.yourtube.cash,8f5ba080c49a436a96e3d9528d172139,mopub,1,1,480,320,4,1,28c1408bf99240f88e99ae6a493d303a,13639300,92920,1335,49,0,30242,96,0.003174393228,0.03670411985,0.0001165133095
fast.phone.clean,d01df44da9194669b1c996c2e88b733d,mopub,1,1,480,320,4,1,cc6fc3624bb4478a9fb7a13981adb2fd,5591400,85737,192,9,0,5657,14,0.00247480997,0.046875,0.0001160067173
io.voodoo.crowdcity,9e1f8665eb1e42d6903d12e0b56b9688,mopub,1,1,480,320,4,1,816b2f6c2c0442ebb33b1b68adb90a30,53578100,716377,1324,74,1,77848,161,0.002068132772,0.05589123867,0.0001155905023
kr.co.smavis.st,1530031,tpmn_kr,0,4,-1,-1,4,1,o24sizqkvuw94cd,4659227,13552,197,6,0,7923,30,0.003786444529,0.03045685279,0.0001153231836
com.bu.man,com.bu.man,gadex_hk,1,1,480,320,4,1,,4659454,822114,59,1,0,10479,70,0.00668002672,0.01694915254,0.0001132207919
com.lunosoft.sbsgostop2,com.lunosoft.sbsgostop2,gadex_hk,1,1,320,480,4,1,,304509014,682079,10040,1157,0,14366,14,0.0009745231797,0.1152390438,0.0001123031194
com.appadvisory.drawclimber,612ccc1c5d504ea09d432913bf52591c,mopub,1,1,480,320,4,1,027040bfb04e49f7aed358be660d117c,27410100,1926673,260,10,0,137157,400,0.002916365916,0.03846153846,0.0001121679199
com.pience.wifi,1530010,pubnative_sg,0,4,-1,-1,4,1,3cow97ict4l616n,86138227,109369,4697,260,0,22297,45,0.002018208728,0.05535448158,0.0001117168978
com.freevpnintouch,com.freevpnintouch,gadex_hk,1,1,480,320,4,1,,2532396,73781,92,2,0,4951,25,0.005049484953,0.02173913043,0.000109771412
com.turbo.stars,19f30ac9a0f143d2b84c3bcb8257ad8e,mopub,1,1,480,320,4,1,e2fb85c8e38343deabd38bf687f8d863,14664800,302412,766,35,0,38732,93,0.002401115357,0.04569190601,0.0001097115372
io.voodoo.paper2,e90310149f324c77a24020b5f1c35410,mopub,1,1,480,320,4,1,acb2912429154bf59589c6dad33ab8c3,26958300,570339,473,21,0,46148,114,0.002470312906,0.044397463,0.0001096756259
com.commsource.beautyplus,130,mobfoxrtb,0,1,250,300,4,1,,2434921,18735,753,39,0,7236,15,0.002072968491,0.05179282869,0.0001073649019
com.mgc.runnergame,f3690135cd044f61bef28a7b517b4e09,mopub,1,1,480,320,4,1,d770262619214414acae59c4ab64289b,47778300,271170,1033,72,0,35118,54,0.001537672988,0.06969990319,0.0001071756584
com.yourtube.cash,1529970,pubnative_sg,0,1,50,320,4,1,n4p7p2d3nrlmket,7678295,20262,1563,42,0,8075,32,0.003962848297,0.02687140115,0.0001064872863
com.pience.wifi,1530010,pubnative_sg,0,1,250,300,4,1,3cow97ict4l616n,18629291,50163,1158,63,0,9842,19,0.001930501931,0.05440414508,0.0001050273071
com.cashwalk.cashwalk,1458642,pubnative_sg,0,4,-1,-1,4,1,aa4159c1af0aee9f41501c6da1ed5c69d563a46c,2811063,239518,196,18,0,109177,124,0.001135770355,0.09183673469,0.0001043054407
com.utorrent.client,80e632d0108240949982301571d1aa0f,mopub,1,1,480,320,4,1,1b842b2ea9024778a5290dbd33116b0c,903306500,290132,18142,1163,1,52508,85,0.001618800945,0.06410539081,0.0001037738672
com.jkchat.votok,31381,tpmn_kr,0,1,50,320,4,1,1,6795518,3188,2148,13,0,888,15,0.01689189189,0.006052141527,0.0001022321204
multi.craft.mini.block.town.creative.craft,multi.craft.mini.block.town.creative.craft,gadex_hk,1,1,480,320,4,1,,5637139,124031,81,2,0,3626,15,0.004136789851,0.02469135802,0.0001021429593
kr.co.smavis.st,kr.co.smavis.st,gadex_hk,0,1,50,320,4,1,,87179,4245,69,1,0,1845,13,0.007046070461,0.01449275362,0.0001021169632
com.baek.Gatalk3,841e999022e04e0a8a4d6c88734434fc,mopub,0,4,-1,-1,4,1,5059306c74bd4cd997cff29177504580,8772200,8262,3004,39,1,1529,12,0.007848266841,0.01298268975,0.0001018916134
devian.tubemate.v3,130190758,smaato_sg,0,1,250,300,4,1,130190758,29425876,19630,5999,283,0,13927,30,0.002154089179,0.04717452909,0.0001016181426
com.gretech.gomplayerko,eb406fb57cfd4a39ab9ee4fe86750838,mopub,1,1,480,320,4,1,1484fd893edb4a779d2680d40d2dfeee,45094000,44400,454,32,0,21655,31,0.00143154006,0.0704845815,0.000100901502
videoeditor.videorecorder.screenrecorder,2b95b40ee84c4c3aa33ed55176ebfc8f,mopub,0,4,-1,-1,4,1,687c4d0251c143a992b4febd177f1034,12105500,6474,2559,52,1,3200,15,0.0046875,0.02032043767,0.00009525205158
com.mxtech.videoplayer.ad,xapi:220960:pk8kU-V6KkNs,rubicon_hk,1,1,480,320,4,1,1085778,5907742,18146,156,7,0,14621,31,0.002120238014,0.04487179487,0.00009513888524
com.sntown.messengerpal,com.sntown.messengerpal,gadex_hk,1,2,480,320,4,1,,1473058,44746,367,7,0,12850,64,0.004980544747,0.01907356948,0.00009499676629
com.pience.wifi,1530010,tpmn_kr,0,4,-1,-1,4,1,3cow97ict4l616n,23639561,22639,1048,61,0,9252,15,0.001621271077,0.05820610687,0.00009436787755
gogolook.callgogolook2,f151985f458a4777b99c37a0cd771b39,mopub,0,4,-1,-1,4,1,811b8dfe3ece453888dd0be693884a78,22090475300,2198716,549679,56073,80,141500,130,0.0009187279152,0.1020104461,0.00009371984447
com.estsoft.alsong,1529944,pubnative_sg,1,4,-1,-1,4,1,hu9dszwy9afbyyq,66720000,16665,2216,47,0,6634,29,0.004371419958,0.02120938628,0.00009271513448
com.gameloft.android.ANMP.GloftDOHM,2116,gameloft_ca,1,1,320,480,4,1,,1404000,210382,100,5,0,7660,14,0.00182767624,0.05,0.00009138381201
com.link.messages.sms,88df48d6b16c43099114194bcacd665c,mopub,0,4,-1,-1,4,1,e6ca4597b05a47538335ec3808180859,14873100,158885,645,19,1,3929,12,0.003054212268,0.02945736434,0.00008996904355
me.chatie,me.chatie,gadex_hk,1,1,480,320,4,1,,74125737,1396826,2635,15,0,25738,403,0.01565778227,0.00569259962,0.00008913348539
com.heeyoung.whisper,com.heeyoung.whisper,gadex_hk,0,1,50,320,4,1,3467789780,434338,17241,501,2,0,1336,29,0.02170658683,0.003992015968,0.00008665304122
com.pience.wifi,3cow97ict4l616n,tpmn_kr,0,1,250,300,4,1,3cow97ict4l616n,44276291,38659,5115,266,0,11077,18,0.001624988715,0.05200391007,0.00008450576702
com.one.goodnight,com.one.goodnight,gadex_hk,0,1,100,320,4,1,543113531,777097,16061,492,2,0,578,12,0.02076124567,0.00406504065,0.00008439530762
com.baek.Gatalk_market,2f9b0bd0dff841ed9a63b471af3203c4,mopub,0,4,-1,-1,4,1,2af70116a5a74d869a444e75f1c6c3d2,45122900,54963,18675,218,2,8015,57,0.007111665627,0.01167336011,0.00008301703382
com.funple.app.zzal.reward,1529774,tpmn_kr,0,1,250,300,4,1,hy1u4qtjb5ttx56,63334465,99941,3737,155,0,14499,29,0.002000137941,0.04147712069,0.00008295996275
com.forshared.files,com.forshared.files,gadex_hk,0,4,-1,-1,4,1,,14740948,347490,1568,21,1,54605,333,0.006098342643,0.01339285714,0.00008167423182
com.sundaytoz.kakao.shanghai.service,3ee89a3a509e41499ed8b68df2cdafda,mopub,1,1,320,480,4,1,4d3e7edd22c349e688e79c90abe7d016,8290440400,828675,131741,15583,7,58120,40,0.0006882312457,0.11828512,0.00008140751552
mp3videoconverter.videotomp3.videotomp3converter,0d2861ba8e6c4e17b70b65e6148eeae8,mopub,0,4,-1,-1,4,1,4eda3da20a264965b8bbe24d88206380,11106000,4907,1470,28,1,3284,14,0.004263093788,0.01904761905,0.00008120178644
com.estsoft.alsong,1529944,tpmn_kr,0,4,-1,-1,4,1,hu9dszwy9afbyyq,1692974,9011,119,2,0,5594,27,0.004826599928,0.01680672269,0.00008111932653
com.estsoft.alsong,1529944,tpmn_kr,1,1,480,320,4,1,y21te47p7ttxr8e,21428855,82915,1392,28,0,48126,194,0.004031085068,0.02011494253,0.00008108504448
com.h8games.helixjump,6d522ac7712147358c57e2415cd1f0a4,mopub,1,1,480,320,4,1,39ec56740ab14bbabd23f0c8aebd5aeb,9557900,94347,1082,30,0,8985,26,0.002893711742,0.02772643253,0.00008023230338
com.pience.wifi,1530010,tpmn_kr,0,1,250,300,4,1,3cow97ict4l616n,7422476,19713,552,23,0,7822,15,0.001917668116,0.04166666667,0.00007990283815
com.bulb.alchemy,com.bulb.alchemy,gadex_hk,1,1,480,320,4,1,,798612,10448,53,1,0,2617,11,0.004203286206,0.01886792453,0.0000793072869
com.andr.evine.who,unos0g865n0tol6,tpmn_kr,0,4,-1,-1,4,1,unos0g865n0tol6,68959858,25775,2446,239,0,17562,14,0.0007971757203,0.09771054783,0.00007789247635
com.outfit7.talkingtomgoldrun,xapi:148564:-AYZGvZow_TU,rubicon_use,1,2,480,320,4,1,703610,2535140,105661,849,67,0,19352,19,0.0009818106656,0.0789163722,0.00007748093592
net.bluestorm.starcommander,net.bluestorm.starcommander,gadex_hk,1,1,320,480,4,1,,914076,80410,77,1,0,2532,15,0.005924170616,0.01298701299,0.00007693728073
devian.tubemate.v3,120003854,admixer_kr,0,1,250,300,4,1,22598462,3688459,23143,2009,90,0,17474,30,0.001716836443,0.04479840717,0.000076911538
com.slippy.linerusher,20051886ed9449ebb3bd439cef96dc71,mopub,1,1,480,320,4,1,de1341eeb425430ab08d0ca4f088b285,29029800,435838,905,35,0,47056,92,0.001955117307,0.03867403315,0.00007561227154
com.jkchat.votok,31381,cauly_kr,0,1,50,320,4,1,1,4577110,4961,3222,13,0,696,13,0.01867816092,0.004034761018,0.00007536191557
com.nbt.moves,5cbfb67b,exelbid_kr,0,4,-1,-1,4,1,c046d733b9de37087b5b3902044cb075360a61a5,2439525828,4750459,468016,16601,22,152416,311,0.002040468192,0.03547100954,0.00007237746671
com.colorsaw.game,004f96b633c144acad79ffdb2349ef4a,mopub,1,1,480,320,4,1,4b78e9d614c445fc921593083ab4d18f,1412000,104990,67,3,0,17450,28,0.001604584527,0.0447761194,0.00007184706838
com.sgy.chat,4ioqtjih9u4s2dw,adpopcorn_kr,0,1,480,320,4,1,4ioqtjih9u4s2dw,5166690,62517,673,11,0,9121,40,0.004385484048,0.01634472511,0.00007167953124
com.estsoft.alzip,1529956,tpmn_kr,0,4,-1,-1,4,1,rdhbse0uxg4j2f6,7701534,11868,210,6,0,7583,19,0.002505604642,0.02857142857,0.00007158870406
fast.phone.clean,d01df44da9194669b1c996c2e88b733d,mopub,0,4,-1,-1,4,1,a110f4bbe05d446587817e6a4349f213,34409900,44689,2753,70,2,3969,11,0.002771478962,0.02542680712,0.000070469861
com.agminstruments.drumpadmachine,c8cb50744c96498fbd6bb1261a1a228f,mopub,0,1,50,320,4,1,e067b1ac156a49ed87c7db7f53e2d953,150381900,193257,28052,281,1,9814,69,0.007030772366,0.01001711108,0.00007042802776
com.one.goodnight,com.one.goodnight,gadex_hk,0,1,100,320,4,1,,2240585,49014,603,2,0,942,20,0.02123142251,0.003316749585,0.00007041931179
com.estsoft.alsong,1529944,pubnative_sg,1,1,480,320,4,1,y21te47p7ttxr8e,101319605,966741,27131,543,0,306874,1079,0.003516101071,0.02001400612,0.00007037126834
free.vpn.unblock.proxy.vpnmaster,free.vpn.unblock.proxy.vpnmaster,gadex_hk,1,1,480,320,4,1,,3053174,28983,64,1,0,9334,42,0.004499678594,0.015625,0.00007030747804
fast.phone.clean,d01df44da9194669b1c996c2e88b733d,mopub,1,1,480,320,4,1,e7f3ff0f743b4226898800606947fb5c,1917800,24361,71,1,0,2206,11,0.004986400725,0.01408450704,0.00007023099613
io.voodoo.paper3,6389502b713147b0865c07785c85bd0e,mopub,1,1,480,320,4,1,d83ea8708b444a31ba737ce333062afb,13476000,61797,499,8,0,9404,41,0.004359846874,0.01603206413,0.00006989734467
com.andr.evine.who,1529946,pubnative_sg,0,4,-1,-1,4,1,unos0g865n0tol6,437976634,126372,13071,1111,0,59042,48,0.0008129805901,0.08499732232,0.00006910117325
com.yourtube.cash,1529970,tpmn_kr,0,4,-1,-1,4,1,qktuf50vo0ww8dt,2236117,11345,403,7,0,4022,16,0.003978120338,0.01736972705,0.00006909886443
com.iconnect.app.pts.a,8c413327d2a64906b0551b4f58bae706,mopub,0,4,-1,-1,4,1,709df79fdedc4c01a648e5ac53eb767e,89840200,174501,11302,240,0,27403,89,0.003247819582,0.02123517961,0.00006896803217