bundle_id,app_id,partner_id,imp_is_instl,imp_type,imp_height,imp_width,device_type,app_type,tagid,cost,bids,shows,clicks,actions,uu,rt_uu,rt_ratio,ctr,score
com.timespread.Timetable2,9a636057,exelbid_kr,0,4,-1,-1,4,1,529e23821f371d955fb9f56b06ce9de33631950a,3859718952,599966,200272,19847,55,35083,7,0.0001995268364,0.6,0.0001197161018
com.pixel.art.coloring.color.number,67b8f7e018944608b43410c8f7e87396,mopub,0,1,50,320,4,1,f22e60410d82403aa5e0fb791ef9c153,1690407900,7466697,3441459,17441,17,65752,12,0.0001825039543,0.4444444444,0.00008111286856
com.infraware.office.link,4cb6b3c9316a4085b1ec60f28e7c7dca,mopub,1,1,480,320,4,1,baf80420897f42f9ad8199a02a1cea41,83657700,192398,7723,279,2,76863,6,0.00007806096561,1,0.00007806096561
com.gretech.gomplayerko,eb406fb57cfd4a39ab9ee4fe86750838,mopub,1,1,480,320,4,1,1484fd893edb4a779d2680d40d2dfeee,35964200,19070,353,30,0,11199,9,0.0008036431824,0.08498583569,0.00006829828746
com.cloudmosa.puffinFree,com.cloudmosa.puffinFree,gadex_hk,1,2,480,320,4,1,,2179145,21350,79,11,0,18962,8,0.0004218964244,0.1392405063,0.00005874507176
com.mxtech.videoplayer.ad,130525568,smaato_sg,1,1,480,320,4,1,130525568,4281594,49138,160,16,0,36566,13,0.0003555215227,0.1,0.00003555215227
gogolook.callgogolook2,f151985f458a4777b99c37a0cd771b39,mopub,0,4,-1,-1,4,1,811b8dfe3ece453888dd0be693884a78,16631262700,1466586,417802,43863,132,122463,6,0.00004899439014,0.5,0.00002449719507
,,kakao_kr,0,1,100,320,4,2,DAN-t4fkwnh4r7zq,12687924430,3992687,2322555,15924,8,357124,28,0.00007840413974,0.2857142857,0.00002240118278
com.cashwalk.cashwalk,51fff7bd,exelbid_kr,0,4,-1,-1,4,1,aa4159c1af0aee9f41501c6da1ed5c69d563a46c,27106401424,1581426,1522702,225834,156,333431,21,0.00006298154641,0.3333333333,0.0000209938488
com.andr.evine.who,1529946,pubnative_sg,0,4,-1,-1,4,1,bypfdv8z8iyz6uh,17094076070,980312,674869,19122,20,67982,6,0.0000882586567,0.2,0.00001765173134
,6781,admixer_kr,0,1,50,320,4,2,20545469,2522212856,819087,624941,5284,0,124805,14,0.000112174993,0.1538461538,0.00001725769123
com.cashwalk.cashwalk,51fff7bd,exelbid_kr,0,4,-1,-1,4,1,bebab7c73b6926f61fd55a19517f390672c9f5a8,102536929451,12078732,10179178,223779,131,291529,16,0.00005488304766,0.3125,0.00001715095239
com.andr.evine.who,bypfdv8z8iyz6uh,adpopcorn_kr,0,4,-1,-1,4,1,bypfdv8z8iyz6uh,3384285605,894883,229882,5622,9,91998,7,0.00007608861062,0.2,0.00001521772212
com.vkslrzm.Zombie,com.vkslrzm.Zombie,gadex_hk,1,1,480,320,4,1,,9974678,247148,153,1,0,20748,36,0.001735106998,0.006535947712,0.00001134056862
com.fusionmedia.investing,130618466,smaato_sg,0,1,50,320,4,1,130618466,966350,426134,415,24,0,38459,7,0.0001820120128,0.0578313253,0.00001052599592
kr.co.smavis.st,1530031,pubnative_sg,1,4,-1,-1,4,1,o24sizqkvuw94cd,98414496,107467,11167,439,1,50252,12,0.0002387964658,0.03931225934,0.000009387628592
com.appadvisory.drawclimber,612ccc1c5d504ea09d432913bf52591c,mopub,1,1,480,320,4,1,027040bfb04e49f7aed358be660d117c,21337000,471917,239,8,0,54612,14,0.0002563539149,0.03347280335,0.00000858088418
,6781,tpmn_kr,0,1,50,320,4,2,6781,2755351819,642896,598558,5202,0,116790,10,0.00008562376916,0.1,0.000008562376916
com.estsoft.alzip,1529956,pubnative_sg,1,1,480,320,4,1,rdhbse0uxg4j2f6,11931785,107942,614,9,0,52038,26,0.0004996348822,0.01465798046,0.000007323638338
,,kakao_kr,0,1,100,320,4,2,0Qv23,35417717055,10600533,5894187,39876,22,561106,38,0.00006772338916,0.1,0.000006772338916
com.sundaytoz.kakao.matgo.service,e06e2f04d6c84d0e9d9062b70d403330,mopub,1,1,320,480,4,1,234b3b22146a45d4b9f8f365cd5ca246,3482826200,865604,73284,4593,9,125002,13,0.000103998336,0.06267398068,0.000006517989703
com.time.trigger,f751b15c835d4f5e9fb27ba02dcd83da,mopub,1,1,480,320,4,1,9a7ffb5ee6594cc995d712bfbe56b8fa,68007800,437929,1480,23,0,37073,15,0.0004046071265,0.01554054054,0.000006287813452
com.appadvisory.drawclimber,612ccc1c5d504ea09d432913bf52591c,mopub,1,1,480,320,4,1,1e49f43d5e8344ddb69a9fc074a6e435,17958200,388719,171,5,0,48715,10,0.0002052755825,0.02923976608,0.000006002210014
com.estsoft.alzip,1529956,pubnative_sg,1,4,-1,-1,4,1,87kciwq6pg5usvg,15476014,144557,1467,17,0,65572,32,0.0004880131764,0.01158827539,0.000005655231083
com.ohmgames.smashthemall,fd246364c8864cd2ad1da9a480f9fcf3,mopub,1,1,480,320,4,1,6dea38865daf403eba4eecf2c8d916b8,62068900,370988,1284,21,0,24133,8,0.0003314962914,0.01635514019,0.000005421668317
com.malangstudio.alarmmon,db6d3c128fc54fc1b68942d7f2cb1f85,mopub,1,1,480,320,4,1,0d771f85d6c84f2ab94d7163fdb5b58b,226918900,116369,2659,78,2,32577,6,0.000184179022,0.02933433622,0.000005402769356
,,kakao_kr,0,1,100,320,4,2,0Qb49,40188926348,14601218,7053690,60115,16,922029,65,0.00007049669804,0.07317073171,0.000005158294979
com.cleanteam.oneboost,com.cleanteam.oneboost,gadex_hk,1,1,480,320,4,1,,3757301,76299,151,1,0,8669,6,0.0006921213519,0.006622516556,0.000004583585112
com.estsoft.alzip,87kciwq6pg5usvg,adpopcorn_kr,0,1,480,320,4,1,87kciwq6pg5usvg,2240270,142037,230,2,0,65022,33,0.0005075205315,0.008695652174,0.000004413222013
,,kakao_kr,0,1,100,320,4,2,DAN-r1fl0859qhpt,30729049384,6064388,3182496,91988,19,533176,30,0.00005626659865,0.07692307692,0.000004328199896
com.mxtech.videoplayer.ad,com.mxtech.videoplayer.ad,gadex_hk,0,1,250,300,4,1,,16561070,119834,828,7,0,33831,17,0.0005024977092,0.00845410628,0.000004248169039
,,kakao_kr,0,1,100,320,4,2,DAN-qe6mbv7yxh6f,100822821383,21509920,11676006,222782,57,1119604,79,0.00007056066252,0.06,0.000004233639751
com.percent.royaldice,8d642d6ff44c408889c9aa2f27b9a3cc,mopub,1,2,480,320,4,1,0224352008d240c090d09a81ffc8f2eb,17951200,51352,945,3,0,31828,42,0.001319592811,0.003174603175,0.000004189183528
com.noyesrun.meeff.kr,f8789da7469f4f2aad8e15ff35ec0dbe,mopub,0,4,-1,-1,4,1,3fe133c460974946a1f2eb912f911e13,24118100,95487,1391,9,0,20478,10,0.0004883289384,0.006470165349,0.000003159568976
com.estsoft.alzip,1529956,pubnative_sg,1,1,480,320,4,1,87kciwq6pg5usvg,3866291,100302,163,1,0,51487,26,0.0005049818401,0.006134969325,0.000003098048099
com.mxtech.videoplayer.ad,com.mxtech.videoplayer.ad,gadex_hk,0,1,100,320,4,1,,14799547,235614,1152,8,0,41824,18,0.0004303749044,0.006944444444,0.000002988714614
com.estsoft.alyac,5vejgijr6h78jk2,tpmn_kr,0,4,-1,-1,4,1,5vejgijr6h78jk2,174585514,279477,13330,272,2,96052,14,0.000145754383,0.02040510128,0.000002974132947
com.northghost.touchvpn,com.northghost.touchvpn,gadex_hk,1,1,480,320,4,1,,8834600,499961,249,2,0,37384,13,0.0003477423497,0.008032128514,0.000002793111242
com.estsoft.alyac,1530029,tpmn_kr,0,4,-1,-1,4,1,5vejgijr6h78jk2,60692019,79225,2591,48,0,40819,6,0.0001469903721,0.01852566577,0.000002723094505
teamdoppelganger.smarterbus,7da7cb9acea44d7996e4b4b7a485e492,mopub,0,4,-1,-1,4,1,93bd011ca527479dad61a2806b90c74d,720800,106384,74,1,0,60534,12,0.0001982357022,0.01351351351,0.000002678860841
com.mxtech.videoplayer.ad,com.mxtech.videoplayer.ad,gadex_hk,1,1,480,320,4,1,,21905752,62070,774,7,0,31068,9,0.0002896871379,0.009043927649,0.000002619909516
com.sntown.messengerpal,com.sntown.messengerpal,gadex_hk,1,1,480,320,4,1,,48088169,471048,2165,14,0,24887,9,0.0003616345883,0.006466512702,0.000002338514659
,,kakao_kr,0,1,100,320,4,2,0Qv33,24238864407,11228864,7413696,43912,11,708400,43,0.0000607001694,0.03703703704,0.000002248154422
com.estsoft.alyac,1530029,pubnative_sg,1,1,480,320,4,1,8fnbj459qrgw0d0,11833238,634043,1263,13,0,383689,73,0.000190258256,0.01029295329,0.000001958319342
com.estsoft.alyac,8fnbj459qrgw0d0,adpopcorn_kr,0,1,480,320,4,1,8fnbj459qrgw0d0,19245737,891682,2457,24,0,490598,97,0.0001977178871,0.009768009768,0.000001931310253
com.smh.memocalendar,com.smh.memocalendar,gadex_hk,1,1,480,320,4,1,,102985266,332539,3298,39,2,62554,10,0.0001598618793,0.0118253487,0.000001890422466
com.mxtech.videoplayer.ad,xapi:220960:pk8kU-V6KkNs,rubicon_hk,0,1,250,300,4,1,1085778,104763125,795043,6108,35,0,128331,41,0.0003194863283,0.005730189915,0.000001830717336
com.appgate.gorealra,com.appgate.gorealra,gadex_hk,1,1,480,320,4,1,,43312655,242378,564,12,0,96630,7,0.00007244127083,0.02127659574,0.000001541303635
com.rummikubfree,com.rummikubfree,gadex_hk,1,1,320,480,4,1,,76621328,759390,1522,15,0,72643,11,0.0001514254643,0.009855453351,0.000001492366599
teamdoppelganger.smarterbus,7da7cb9acea44d7996e4b4b7a485e492,mopub,0,4,-1,-1,4,1,47754ed8f33a4faba10d412daa145a7f,14220700,142781,1838,16,0,66884,11,0.0001644638479,0.008705114255,0.000001431676586
com.mxtech.videoplayer.ad,xapi:220960:pk8kU-V6KkNs,rubicon_hk,0,1,100,320,4,1,1085778,47657469,943759,3496,13,0,149103,52,0.0003487522049,0.003718535469,0.000001296847444
com.ktcs.whowho,ea215f7190fa4dc4b81e858b0b8425c9,mopub,0,4,-1,-1,4,1,f824d7a7c86d495c8cd5280d7a8472a7,26706700,214072,3811,48,0,88027,9,0.0001022413578,0.01259511939,0.000001287742108
com.tuck.hellomarket,com.tuck.hellomarket,gadex_hk,0,4,-1,-1,4,1,,22880907,1083038,1861,19,1,64766,8,0.0001235216008,0.01020956475,0.000001261101782
com.sweettracker.smartparcel,9059e61b7fbd41e18ff4fa6e54cc8699,mopub,0,4,-1,-1,4,1,ce1cbbcc5a0d4d05b165bdb33631ac77,50836500,214274,3144,17,1,56525,13,0.0002299867315,0.005407124682,0.000001243566933
com.malangstudio.alarmmon,db6d3c128fc54fc1b68942d7f2cb1f85,mopub,0,4,-1,-1,4,1,5137a97417cc4cf1a04444e317941c75,23073900,144596,3390,16,0,56143,14,0.0002493632332,0.004719764012,0.000001176935614
kr.caramel.flash_plus,kr.caramel.flash_plus,gadex_hk,1,1,480,320,4,1,,125368299,389297,4915,57,0,81860,8,0.000097727828,0.01159715158,0.000001133364435
com.mxtech.videoplayer.ad,com.mxtech.videoplayer.ad,gadex_hk,0,4,-1,-1,4,1,,91112599,1115260,7645,22,0,101823,36,0.0003535546979,0.002877697842,0.000001017423591
kr.co.angtalk.one,kr.co.angtalk.one,gadex_hk,1,1,480,320,4,1,,3119773,82283,528,1,0,11272,6,0.000532292406,0.001893939394,0.000001008129557
droom.sleepIfUCan,xapi:186722:CLsSPZgTKZYk,rubicon_hk,0,1,50,320,4,1,912018,30342426,4022306,7046,19,0,156957,49,0.0003121874144,0.002696565427,0.0000008418337884
com.cloudmosa.puffinFree,com.cloudmosa.puffinFree,gadex_hk,1,1,480,320,4,1,,8775000,71503,335,1,0,35694,8,0.0002241273043,0.002985074627,0.0000006690367293
com.realbyteapps.moneymanagerfree,com.realbyteapps.moneymanagerfree,gadex_hk,1,1,480,320,4,1,,10126149,82424,158,1,0,69015,7,0.000101427226,0.006329113924,0.0000006419444681
com.dencreak.dlcalculator,com.dencreak.dlcalculator,gadex_hk,0,1,50,320,4,1,,17274327,466894,998,4,0,93334,13,0.0001392847194,0.004008016032,0.0000005582553884
com.lifeoverflow.app.weather,com.lifeoverflow.app.weather,gadex_hk,0,4,-1,-1,4,1,,35433986,401328,1598,6,0,51245,7,0.0001365986926,0.003754693367,0.0000005128862048
com.mxtech.videoplayer.ad,com.mxtech.videoplayer.ad,gadex_hk,0,1,50,320,4,1,,11828520,309458,1889,2,0,64355,31,0.0004817030534,0.001058761249,0.0000005100085266
com.aboutjsp.thedaybefore,com.aboutjsp.thedaybefore,gadex_hk,1,1,480,320,4,1,,13738672,89301,364,1,0,34695,6,0.0001729355815,0.002747252747,0.0000004750977514
com.wisetoto,31e2fa61d16d4129b5a9b69d5468581a,mopub,1,1,480,320,4,1,40c1390857214d14a103e2a26928205b,39912200,329626,5891,17,0,44808,7,0.0001562221032,0.002885757936,0.0000004508191741
video.player.videoplayer,e116acd32041425cac686d55b1ee5c00,mopub,0,4,-1,-1,4,1,4e00e04dca004918b6b41f5692c6f9fa,14645900,57853,5131,6,0,18216,7,0.0003842775582,0.001169362697,0.000000449359842
com.gion.android.GnMemoG,xapi:76420:8_lWIl8EM6fs,rubicon_hk,0,1,50,320,4,1,362752,76052071,292099,4579,15,0,179695,19,0.0001057347172,0.003275824416,0.0000003463683681
com.malangstudio.alarmmon,db6d3c128fc54fc1b68942d7f2cb1f85,mopub,0,4,-1,-1,4,1,026d0b939aac43109c57443d45007807,11248300,345779,5428,7,1,51747,13,0.0002512222931,0.001289609433,0.0000003239786388
gg.op.lol.android,gg.op.lol.android,gadex_hk,0,4,-1,-1,4,1,,96311720,375925,17283,17,0,46852,14,0.0002988132844,0.000983625528,0.0000002939203746
com.vaultmicro.kidsnote,com.vaultmicro.kidsnote,gadex_hk,0,4,-1,-1,4,1,,69990990,2185200,3203,24,3,206276,8,0.00003878298978,0.007492975336,0.0000002905999859
com.mxtech.videoplayer.ad,xapi:220960:pk8kU-V6KkNs,rubicon_hk,0,1,50,320,4,1,1085778,74643579,893391,9790,8,0,127710,41,0.0003210398559,0.0008171603677,0.0000002623410467
com.picsart.studio,122ac87b05e04c59bfa8655cc4e6c507,mopub,0,4,-1,-1,4,1,a3f9db06ae3c4d2ba60d82cd57e25d61,791200,321788,446,1,0,100702,9,0.00008937260432,0.002242152466,0.0000002003870052
jp.ne.ibis.ibispaintx.app,xapi:214544:_SX9R7deEq4U,rubicon_hk,0,1,50,320,4,1,1055192,18280091,254345,13979,13,0,28634,6,0.000209541105,0.0009299663781,0.0000001948661825
kr.co.vcnc.android.couple,kr.co.vcnc.android.couple,gadex_hk,0,4,-1,-1,4,1,,20808107,189463,3563,4,0,43282,7,0.0001617300494,0.001122649453,0.0000001815661515
com.oss.mcam,xapi:76420:r5NIxEuv6Y1w,rubicon_hk,0,1,50,320,4,1,362752,39704821,147785,2385,3,0,50357,7,0.0001390074865,0.001257861635,0.0000001748521843
com.estsoft.alyac,z2xk0muho29dgru,tpmn_kr,0,4,-1,-1,4,1,z2xk0muho29dgru,13330733,146092,1546,2,0,45201,6,0.0001327404261,0.001293661061,0.0000001717211204
com.fusionmedia.investing,xapi:261576:xWhSJfpfOIkg,rubicon_hk,0,1,50,320,4,1,1292724,99077513,975758,12090,13,0,51486,8,0.0001553820456,0.001075268817,0.0000001670774684
cheehoon.ha.particulateforecaster,cheehoon.ha.particulateforecaster,gadex_hk,0,4,-1,-1,4,1,,141493525,1775640,9148,23,1,357366,23,0.000064359788,0.002514210756,0.0000001618140713
com.skt.skaf.OA00026910,com.skt.skaf.OA00026910,gadex_hk,0,4,-1,-1,4,1,,72910955,1710449,7655,18,0,255380,17,0.00006656746809,0.002351404311,0.0000001565270314
com.charmy.cupist,com.charmy.cupist,gadex_hk,0,4,-1,-1,4,1,,18529319,925050,4048,1,0,31987,16,0.0005002032076,0.0002470355731,0.0000001235679861
com.ktcs.whowho,com.ktcs.whowho,gadex_hk,0,4,-1,-1,4,1,,302482010,1100110,31702,21,0,303349,12,0.00003955839643,0.0006624187748,0.0000000262042245